{
    "shop_id": "59292822",
    "user_id": "299244686",
    "shop_title": "伊利旗舰店",
    "total_page": "9",
    "shop_Url": "//yili.tmall.com",
    "items": [
        {
            "item_id": 17117571947,
            "title": "伊利 金典有机纯牛奶250ml*12*2箱 整箱牛奶早餐金典有机纯牛奶",
            "img": "//img.alicdn.com/bao/uploaded/i4/299244686/O1CN01jLQBiF1kUESGkLKYd_!!0-item_pic.jpg",
            "sold": "398",
            "quantity": 0,
            "totalSoldQuantity": 81317,
            "url": "//detail.m.tmall.com/item.htm?id=17117571947",
            "price": "144.00",
            "titleUnderIconList": []
        },
        {
            "item_id": 578498149056,
            "title": "伊利旗舰店 安慕希原味希腊酸奶205g*24盒酸奶牛奶整箱跑男",
            "img": "//img.alicdn.com/bao/uploaded/i1/299244686/O1CN01tCBh6q1kUEW39g8TT-299244686.jpg",
            "sold": "10398",
            "quantity": 0,
            "totalSoldQuantity": 129551,
            "url": "//detail.m.tmall.com/item.htm?id=578498149056",
            "price": "99.00",
            "titleUnderIconList": []
        },
        {
            "item_id": 559800951603,
            "title": "伊利畅意100%乳酸菌饮品原味100ml*30瓶 整箱饮料",
            "img": "//img.alicdn.com/bao/uploaded/i2/299244686/O1CN01TWAuAf1kUESbwk2ns_!!0-item_pic.jpg",
            "sold": "8245",
            "quantity": 0,
            "totalSoldQuantity": 98878,
            "url": "//detail.m.tmall.com/item.htm?id=559800951603",
            "price": "39.90",
            "titleUnderIconList": []
        },
        {
            "item_id": 586453001126,
            "title": "伊利安慕希原味希腊酸奶205g*24盒酸 牛奶整箱",
            "img": "//img.alicdn.com/bao/uploaded/i4/299244686/O1CN01QkT4SR1kUEW3lsNNd_!!0-item_pic.jpg",
            "sold": "4699",
            "quantity": 0,
            "totalSoldQuantity": 7242,
            "url": "//detail.m.tmall.com/item.htm?id=586453001126",
            "price": "99.00",
            "titleUnderIconList": []
        },
        {
            "item_id": 26254408752,
            "title": "伊利旗舰店 女士高铁高钙奶粉400g*2袋 小袋装",
            "img": "//img.alicdn.com/bao/uploaded/i3/299244686/O1CN01YENpxX1kUEW39IZce-299244686.jpg",
            "sold": "1458",
            "quantity": 0,
            "totalSoldQuantity": 41758,
            "url": "//detail.m.tmall.com/item.htm?id=26254408752",
            "price": "71.80",
            "titleUnderIconList": []
        },
        {
            "item_id": 21282635865,
            "title": "伊利官方旗舰店 中老年成人奶粉900g*2罐装营养奶粉送礼",
            "img": "//img.alicdn.com/bao/uploaded/i2/299244686/O1CN01Ny195H1kUEW03edI1-299244686.jpg",
            "sold": "3697",
            "quantity": 0,
            "totalSoldQuantity": 65878,
            "url": "//detail.m.tmall.com/item.htm?id=21282635865",
            "price": "145.80",
            "titleUnderIconList": []
        },
        {
            "item_id": 592156476731,
            "title": "伊利l笑脸包装舒化高钙无乳糖牛奶220m*12整箱牛奶",
            "img": "//img.alicdn.com/bao/uploaded/i3/299244686/O1CN01C3Ago61kUEW6aEJ3Z-299244686.jpg",
            "sold": "2376",
            "quantity": 0,
            "totalSoldQuantity": 14575,
            "url": "//detail.m.tmall.com/item.htm?id=592156476731",
            "price": "52.80",
            "titleUnderIconList": []
        },
        {
            "item_id": 568954599866,
            "title": "伊利安慕希酸奶原味205g*12盒整箱牛奶官方营养早餐酸牛奶.",
            "img": "//img.alicdn.com/bao/uploaded/i2/299244686/O1CN01sZw62q1kUEW6pEzBo-299244686.jpg",
            "sold": "1189",
            "quantity": 0,
            "totalSoldQuantity": 7878,
            "url": "//detail.m.tmall.com/item.htm?id=568954599866",
            "price": "39.90",
            "titleUnderIconList": []
        },
        {
            "item_id": 560213493373,
            "title": "伊利旗舰店 无菌砖高钙低脂奶 250ml*24盒 整箱牛奶低脂营养",
            "img": "//img.alicdn.com/bao/uploaded/i4/299244686/O1CN01KG0MYt1kUEVvRLhOE-299244686.jpg",
            "sold": "2061",
            "quantity": 0,
            "totalSoldQuantity": 79640,
            "url": "//detail.m.tmall.com/item.htm?id=560213493373",
            "price": "74.40",
            "titleUnderIconList": []
        },
        {
            "item_id": 582500962354,
            "title": "伊利 金典有机纯牛奶250ml*16盒牛奶整箱营养早餐",
            "img": "//img.alicdn.com/bao/uploaded/i1/299244686/O1CN01iozGoi1kUEW17Y2nu-299244686.jpg",
            "sold": "1677",
            "quantity": 0,
            "totalSoldQuantity": 5987,
            "url": "//detail.m.tmall.com/item.htm?id=582500962354",
            "price": "79.90",
            "titleUnderIconList": []
        },
        {
            "item_id": 44162836970,
            "title": "伊利 谷粒多燕麦牛奶200ml*12盒营养早餐整箱牛奶",
            "img": "//img.alicdn.com/bao/uploaded/i3/299244686/O1CN01tbXsMx1kUEUxeQDIA_!!0-item_pic.jpg",
            "sold": "7588",
            "quantity": 0,
            "totalSoldQuantity": 56197,
            "url": "//detail.m.tmall.com/item.htm?id=44162836970",
            "price": "45.50",
            "titleUnderIconList": []
        },
        {
            "item_id": 520531601426,
            "title": "伊利无菌砖纯牛奶250ml*16盒 整箱牛奶 早餐奶",
            "img": "//img.alicdn.com/bao/uploaded/i3/299244686/O1CN01aetHXX1kUES4xSerd_!!0-item_pic.jpg",
            "sold": "1661",
            "quantity": 0,
            "totalSoldQuantity": 228001,
            "url": "//detail.m.tmall.com/item.htm?id=520531601426",
            "price": "48.00",
            "titleUnderIconList": []
        },
        {
            "item_id": 592881922387,
            "title": "伊利舒化低脂无乳糖牛奶笑脸包装220ml*12*2整箱牛奶",
            "img": "//img.alicdn.com/bao/uploaded/i4/299244686/O1CN01ZhOE221kUEU6zeLDA_!!0-item_pic.jpg",
            "sold": "2657",
            "quantity": 0,
            "totalSoldQuantity": 7723,
            "url": "//detail.m.tmall.com/item.htm?id=592881922387",
            "price": "99.60",
            "titleUnderIconList": []
        },
        {
            "item_id": 576523646986,
            "title": "伊利 金典纯牛奶250ml*16盒 牛奶整箱 早餐营养",
            "img": "//img.alicdn.com/bao/uploaded/i2/299244686/O1CN01ZZEPsq1kUEW0NWd2E_!!0-item_pic.jpg",
            "sold": "567",
            "quantity": 0,
            "totalSoldQuantity": 5001,
            "url": "//detail.m.tmall.com/item.htm?id=576523646986",
            "price": "69.90",
            "titleUnderIconList": []
        },
        {
            "item_id": 592441365250,
            "title": "伊利舒化低脂无乳糖牛奶笑脸包装220ml*12整箱牛奶",
            "img": "//img.alicdn.com/bao/uploaded/i3/299244686/O1CN01UPYLq61kUEW39RQs9-299244686.jpg",
            "sold": "862",
            "quantity": 0,
            "totalSoldQuantity": 7940,
            "url": "//detail.m.tmall.com/item.htm?id=592441365250",
            "price": "49.80",
            "titleUnderIconList": []
        },
        {
            "item_id": 565328812543,
            "title": "伊利旗舰店 舒化无乳糖牛奶-全脂型 220ml*12盒整箱",
            "img": "//img.alicdn.com/bao/uploaded/i1/299244686/O1CN01hAxpjt1kUEW6acHDO-299244686.jpg",
            "sold": "2993",
            "quantity": 0,
            "totalSoldQuantity": 25301,
            "url": "//detail.m.tmall.com/item.htm?id=565328812543",
            "price": "49.80",
            "titleUnderIconList": []
        },
        {
            "item_id": 562833606377,
            "title": "伊利 安慕希黄桃燕麦希腊风味酸奶200g*10盒 整箱酸牛奶",
            "img": "//img.alicdn.com/bao/uploaded/i4/299244686/O1CN01P500WF1kUEW5usZR1-299244686.jpg",
            "sold": "1125",
            "quantity": 0,
            "totalSoldQuantity": 48949,
            "url": "//detail.m.tmall.com/item.htm?id=562833606377",
            "price": "68.00",
            "titleUnderIconList": []
        },
        {
            "item_id": 573366012065,
            "title": "伊利 QQ星原生DHA纯牛奶195ml*12盒 整箱成长儿童牛奶",
            "img": "//img.alicdn.com/bao/uploaded/i2/299244686/O1CN01vRXFFW1kUEW5CyCXu-299244686.jpg",
            "sold": "811",
            "quantity": 0,
            "totalSoldQuantity": 4673,
            "url": "//detail.m.tmall.com/item.htm?id=573366012065",
            "price": "68.00",
            "titleUnderIconList": []
        },
        {
            "item_id": 559788969832,
            "title": "伊利畅意100%乳酸菌草莓味100ml*30瓶 整箱饮料",
            "img": "//img.alicdn.com/bao/uploaded/i3/299244686/O1CN011OQ0vi1kUESdCpG4V_!!0-item_pic.jpg",
            "sold": "1675",
            "quantity": 0,
            "totalSoldQuantity": 43432,
            "url": "//detail.m.tmall.com/item.htm?id=559788969832",
            "price": "39.90",
            "titleUnderIconList": []
        },
        {
            "item_id": 559732078271,
            "title": "伊利旗舰店 原味优酸乳250ml*24盒 整箱牛奶饮品早餐",
            "img": "//img.alicdn.com/bao/uploaded/i3/299244686/O1CN01lJMGAm1kUEW0zmgCu-299244686.jpg",
            "sold": "523",
            "quantity": 0,
            "totalSoldQuantity": 32890,
            "url": "//detail.m.tmall.com/item.htm?id=559732078271",
            "price": "43.90",
            "titleUnderIconList": []
        },
        {
            "item_id": 593129114383,
            "title": "伊利 畅意100%乳酸菌饮品原味330ml*12瓶",
            "img": "//img.alicdn.com/bao/uploaded/i3/299244686/O1CN01IWPRcU1kUEW3AMEE9-299244686.jpg",
            "sold": "495",
            "quantity": 0,
            "totalSoldQuantity": 2532,
            "url": "//detail.m.tmall.com/item.htm?id=593129114383",
            "price": "49.90",
            "titleUnderIconList": []
        },
        {
            "item_id": 576218172348,
            "title": "伊利 金典有机纯牛奶250ml*12盒整箱牛奶 早餐有机纯奶",
            "img": "//img.alicdn.com/bao/uploaded/i2/299244686/O1CN01f4jafW1kUEW1kSfjh-299244686.jpg",
            "sold": "965",
            "quantity": 0,
            "totalSoldQuantity": 9698,
            "url": "//detail.m.tmall.com/item.htm?id=576218172348",
            "price": "49.90",
            "titleUnderIconList": []
        },
        {
            "item_id": 565335111194,
            "title": "伊利旗舰店 女士高铁高钙奶粉400g*3袋 营养奶粉",
            "img": "//img.alicdn.com/bao/uploaded/i1/299244686/O1CN01pvOUbm1kUEUxwxzZv_!!0-item_pic.jpg",
            "sold": "958",
            "quantity": 0,
            "totalSoldQuantity": 10910,
            "url": "//detail.m.tmall.com/item.htm?id=565335111194",
            "price": "107.70",
            "titleUnderIconList": []
        },
        {
            "item_id": 543533853087,
            "title": "伊利旗舰店新西兰进口全脂奶粉1kg*1袋 进口成人奶粉",
            "img": "//img.alicdn.com/bao/uploaded/i3/299244686/O1CN01SpZy171kUEW02Tzpz-299244686.jpg",
            "sold": "871",
            "quantity": 0,
            "totalSoldQuantity": 19948,
            "url": "//detail.m.tmall.com/item.htm?id=543533853087",
            "price": "69.90",
            "titleUnderIconList": []
        }
    ],
    "current_page": "1",
    "page_size": "24",
    "total_results": "193"
}